^C:\USERS\USER\SOURCE\REPOS\PATTERNS\ABSTRACTFACTORY.CPP|C:\USERS\USER\SOURCE\REPOS\PATTERNS\BUILDER.CPP|C:\USERS\USER\SOURCE\REPOS\PATTERNS\PROTOTYPE.CPP|C:\USERS\USER\SOURCE\REPOS\PATTERNS\SINGLETON.CPP
C:\USERS\USER\SOURCE\REPOS\PATTERNS\X64\DEBUG\VC143.PDB
C:\USERS\USER\SOURCE\REPOS\PATTERNS\X64\DEBUG\VC143.IDB
C:\USERS\USER\SOURCE\REPOS\PATTERNS\X64\DEBUG\SINGLETON.OBJ
C:\USERS\USER\SOURCE\REPOS\PATTERNS\X64\DEBUG\PROTOTYPE.OBJ
C:\USERS\USER\SOURCE\REPOS\PATTERNS\X64\DEBUG\ABSTRACTFACTORY.OBJ
^C:\USERS\USER\SOURCE\REPOS\PATTERNS\BUILDER.CPP|C:\USERS\USER\SOURCE\REPOS\PATTERNS\PROTOTYPE.CPP|C:\USERS\USER\SOURCE\REPOS\PATTERNS\SINGLETON.CPP
C:\USERS\USER\SOURCE\REPOS\PATTERNS\X64\DEBUG\VC143.PDB
C:\USERS\USER\SOURCE\REPOS\PATTERNS\X64\DEBUG\VC143.IDB
C:\USERS\USER\SOURCE\REPOS\PATTERNS\X64\DEBUG\SINGLETON.OBJ
C:\USERS\USER\SOURCE\REPOS\PATTERNS\X64\DEBUG\PROTOTYPE.OBJ
^C:\USERS\USER\SOURCE\REPOS\PATTERNS\BUILDER.CPP|C:\USERS\USER\SOURCE\REPOS\PATTERNS\SINGLETON.CPP
C:\USERS\USER\SOURCE\REPOS\PATTERNS\X64\DEBUG\VC143.PDB
C:\USERS\USER\SOURCE\REPOS\PATTERNS\X64\DEBUG\VC143.IDB
C:\USERS\USER\SOURCE\REPOS\PATTERNS\X64\DEBUG\SINGLETON.OBJ
^C:\USERS\USER\SOURCE\REPOS\PATTERNS\ABSTRACTFACTORY.CPP|C:\USERS\USER\SOURCE\REPOS\PATTERNS\BUILDER.CPP|C:\USERS\USER\SOURCE\REPOS\PATTERNS\PROTOTYPE.CPP
C:\USERS\USER\SOURCE\REPOS\PATTERNS\X64\DEBUG\VC143.PDB
C:\USERS\USER\SOURCE\REPOS\PATTERNS\X64\DEBUG\VC143.IDB
C:\USERS\USER\SOURCE\REPOS\PATTERNS\X64\DEBUG\PROTOTYPE.OBJ
C:\USERS\USER\SOURCE\REPOS\PATTERNS\X64\DEBUG\BUILDER.OBJ
C:\USERS\USER\SOURCE\REPOS\PATTERNS\X64\DEBUG\ABSTRACTFACTORY.OBJ
^C:\USERS\USER\SOURCE\REPOS\PATTERNS\BUILDER.CPP
C:\USERS\USER\SOURCE\REPOS\PATTERNS\X64\DEBUG\VC143.PDB
^C:\USERS\USER\SOURCE\REPOS\PATTERNS\PROTOTYPE.CPP|C:\USERS\USER\SOURCE\REPOS\PATTERNS\SINGLETON.CPP
C:\USERS\USER\SOURCE\REPOS\PATTERNS\X64\DEBUG\VC143.PDB
C:\USERS\USER\SOURCE\REPOS\PATTERNS\X64\DEBUG\VC143.IDB
C:\USERS\USER\SOURCE\REPOS\PATTERNS\X64\DEBUG\SINGLETON.OBJ
C:\USERS\USER\SOURCE\REPOS\PATTERNS\X64\DEBUG\PROTOTYPE.OBJ
^C:\USERS\USER\SOURCE\REPOS\PATTERNS\ABSTRACTFACTORY.CPP|C:\USERS\USER\SOURCE\REPOS\PATTERNS\PROTOTYPE.CPP|C:\USERS\USER\SOURCE\REPOS\PATTERNS\SINGLETON.CPP
C:\USERS\USER\SOURCE\REPOS\PATTERNS\X64\DEBUG\VC143.PDB
C:\USERS\USER\SOURCE\REPOS\PATTERNS\X64\DEBUG\VC143.IDB
C:\USERS\USER\SOURCE\REPOS\PATTERNS\X64\DEBUG\SINGLETON.OBJ
C:\USERS\USER\SOURCE\REPOS\PATTERNS\X64\DEBUG\PROTOTYPE.OBJ
C:\USERS\USER\SOURCE\REPOS\PATTERNS\X64\DEBUG\ABSTRACTFACTORY.OBJ
^C:\USERS\USER\SOURCE\REPOS\PATTERNS\PROTOTYPE.CPP
C:\USERS\USER\SOURCE\REPOS\PATTERNS\X64\DEBUG\VC143.PDB
^C:\USERS\USER\SOURCE\REPOS\PATTERNS\SINGLETON.CPP
C:\USERS\USER\SOURCE\REPOS\PATTERNS\X64\DEBUG\VC143.PDB
^C:\USERS\USER\SOURCE\REPOS\PATTERNS\ABSTRACTFACTORY.CPP|C:\USERS\USER\SOURCE\REPOS\PATTERNS\FACADE.CPP
C:\USERS\USER\SOURCE\REPOS\PATTERNS\X64\DEBUG\VC143.PDB
C:\USERS\USER\SOURCE\REPOS\PATTERNS\X64\DEBUG\VC143.IDB
C:\USERS\USER\SOURCE\REPOS\PATTERNS\X64\DEBUG\ABSTRACTFACTORY.OBJ
^C:\USERS\USER\SOURCE\REPOS\PATTERNS\ABSTRACTFACTORY.CPP
C:\USERS\USER\SOURCE\REPOS\PATTERNS\X64\DEBUG\ABSTRACTFACTORY.OBJ
^C:\USERS\USER\SOURCE\REPOS\PATTERNS\FACADE.CPP|C:\USERS\USER\SOURCE\REPOS\PATTERNS\PROXY.CPP
C:\USERS\USER\SOURCE\REPOS\PATTERNS\X64\DEBUG\VC143.PDB
C:\USERS\USER\SOURCE\REPOS\PATTERNS\X64\DEBUG\VC143.IDB
C:\USERS\USER\SOURCE\REPOS\PATTERNS\X64\DEBUG\PROXY.OBJ
C:\USERS\USER\SOURCE\REPOS\PATTERNS\X64\DEBUG\FACADE.OBJ
^C:\USERS\USER\SOURCE\REPOS\PATTERNS\FACADE.CPP
C:\USERS\USER\SOURCE\REPOS\PATTERNS\X64\DEBUG\VC143.PDB
^C:\USERS\USER\SOURCE\REPOS\PATTERNS\COMPOSITE.CPP|C:\USERS\USER\SOURCE\REPOS\PATTERNS\PROXY.CPP
C:\USERS\USER\SOURCE\REPOS\PATTERNS\X64\DEBUG\VC143.PDB
C:\USERS\USER\SOURCE\REPOS\PATTERNS\X64\DEBUG\VC143.IDB
C:\USERS\USER\SOURCE\REPOS\PATTERNS\X64\DEBUG\PROXY.OBJ
C:\USERS\USER\SOURCE\REPOS\PATTERNS\X64\DEBUG\COMPOSITE.OBJ
^C:\USERS\USER\SOURCE\REPOS\PATTERNS\PROXY.CPP
C:\USERS\USER\SOURCE\REPOS\PATTERNS\X64\DEBUG\VC143.PDB
^C:\USERS\USER\SOURCE\REPOS\PATTERNS\ADAPTER.CPP|C:\USERS\USER\SOURCE\REPOS\PATTERNS\COMPOSITE.CPP
C:\USERS\USER\SOURCE\REPOS\PATTERNS\X64\DEBUG\VC143.PDB
C:\USERS\USER\SOURCE\REPOS\PATTERNS\X64\DEBUG\VC143.IDB
C:\USERS\USER\SOURCE\REPOS\PATTERNS\X64\DEBUG\COMPOSITE.OBJ
C:\USERS\USER\SOURCE\REPOS\PATTERNS\X64\DEBUG\ADAPTER.OBJ
^C:\USERS\USER\SOURCE\REPOS\PATTERNS\ADAPTER.CPP|C:\USERS\USER\SOURCE\REPOS\PATTERNS\COMMAND.CPP|C:\USERS\USER\SOURCE\REPOS\PATTERNS\COMPOSITE.CPP
C:\USERS\USER\SOURCE\REPOS\PATTERNS\X64\DEBUG\VC143.PDB
C:\USERS\USER\SOURCE\REPOS\PATTERNS\X64\DEBUG\VC143.IDB
C:\USERS\USER\SOURCE\REPOS\PATTERNS\X64\DEBUG\COMPOSITE.OBJ
C:\USERS\USER\SOURCE\REPOS\PATTERNS\X64\DEBUG\COMMAND.OBJ
C:\USERS\USER\SOURCE\REPOS\PATTERNS\X64\DEBUG\ADAPTER.OBJ
^C:\USERS\USER\SOURCE\REPOS\PATTERNS\ADAPTER.CPP
C:\USERS\USER\SOURCE\REPOS\PATTERNS\X64\DEBUG\VC143.PDB
^C:\USERS\USER\SOURCE\REPOS\PATTERNS\COMPOSITE.CPP
C:\USERS\USER\SOURCE\REPOS\PATTERNS\X64\DEBUG\VC143.PDB
^C:\USERS\USER\SOURCE\REPOS\PATTERNS\COMMAND.CPP|C:\USERS\USER\SOURCE\REPOS\PATTERNS\STATE.CPP
C:\USERS\USER\SOURCE\REPOS\PATTERNS\X64\DEBUG\VC143.PDB
C:\USERS\USER\SOURCE\REPOS\PATTERNS\X64\DEBUG\VC143.IDB
C:\USERS\USER\SOURCE\REPOS\PATTERNS\X64\DEBUG\COMMAND.OBJ
^C:\USERS\USER\SOURCE\REPOS\PATTERNS\STATE.CPP|C:\USERS\USER\SOURCE\REPOS\PATTERNS\VISITOR.CPP
C:\USERS\USER\SOURCE\REPOS\PATTERNS\X64\DEBUG\VC143.PDB
C:\USERS\USER\SOURCE\REPOS\PATTERNS\X64\DEBUG\VC143.IDB
C:\USERS\USER\SOURCE\REPOS\PATTERNS\X64\DEBUG\STATE.OBJ
^C:\USERS\USER\SOURCE\REPOS\PATTERNS\STATE.CPP
C:\USERS\USER\SOURCE\REPOS\PATTERNS\X64\DEBUG\STATE.OBJ
^C:\USERS\USER\SOURCE\REPOS\PATTERNS\OBSERVER.CPP|C:\USERS\USER\SOURCE\REPOS\PATTERNS\VISITOR.CPP
C:\USERS\USER\SOURCE\REPOS\PATTERNS\X64\DEBUG\VC143.PDB
C:\USERS\USER\SOURCE\REPOS\PATTERNS\X64\DEBUG\VC143.IDB
C:\USERS\USER\SOURCE\REPOS\PATTERNS\X64\DEBUG\VISITOR.OBJ
C:\USERS\USER\SOURCE\REPOS\PATTERNS\X64\DEBUG\OBSERVER.OBJ
^C:\USERS\USER\SOURCE\REPOS\PATTERNS\VISITOR.CPP
C:\USERS\USER\SOURCE\REPOS\PATTERNS\X64\DEBUG\VC143.PDB
^C:\USERS\USER\SOURCE\REPOS\PATTERNS\OBSERVER.CPP|C:\USERS\USER\SOURCE\REPOS\PATTERNS\STRATEGY.CPP
C:\USERS\USER\SOURCE\REPOS\PATTERNS\X64\DEBUG\VC143.PDB
C:\USERS\USER\SOURCE\REPOS\PATTERNS\X64\DEBUG\VC143.IDB
C:\USERS\USER\SOURCE\REPOS\PATTERNS\X64\DEBUG\STRATEGY.OBJ
C:\USERS\USER\SOURCE\REPOS\PATTERNS\X64\DEBUG\OBSERVER.OBJ
^C:\USERS\USER\SOURCE\REPOS\PATTERNS\COMMAND.CPP|C:\USERS\USER\SOURCE\REPOS\PATTERNS\OBSERVER.CPP|C:\USERS\USER\SOURCE\REPOS\PATTERNS\STRATEGY.CPP
C:\USERS\USER\SOURCE\REPOS\PATTERNS\X64\DEBUG\VC143.PDB
C:\USERS\USER\SOURCE\REPOS\PATTERNS\X64\DEBUG\VC143.IDB
C:\USERS\USER\SOURCE\REPOS\PATTERNS\X64\DEBUG\STRATEGY.OBJ
C:\USERS\USER\SOURCE\REPOS\PATTERNS\X64\DEBUG\OBSERVER.OBJ
C:\USERS\USER\SOURCE\REPOS\PATTERNS\X64\DEBUG\COMMAND.OBJ
^C:\USERS\USER\SOURCE\REPOS\PATTERNS\COMMAND.CPP
C:\USERS\USER\SOURCE\REPOS\PATTERNS\X64\DEBUG\VC143.PDB
^C:\USERS\USER\SOURCE\REPOS\PATTERNS\OBSERVER.CPP
C:\USERS\USER\SOURCE\REPOS\PATTERNS\X64\DEBUG\VC143.PDB
^C:\USERS\USER\SOURCE\REPOS\PATTERNS\STRATEGY.CPP
C:\USERS\USER\SOURCE\REPOS\PATTERNS\X64\DEBUG\VC143.PDB
